…
group_by(db, position_title) %>% 
  count(gender) %>% 
  ungroup() %>% 
  mutate(
    full_desc = ifelse(gender=="F", "Female", "Male")
  ) %>% 
  collect() %>% 
  select(
    Title = position_title, 
    Gender = full_desc, 
    Count = n
  )
## # A tibble: 30 x 3
##    Title                  Gender Count
##    <chr>                  <chr>  <dbl>
##  1 President              Female     1
##  2 VP Country Manager     Male       3
##  3 VP Country Manager     Female     3
##  4 VP Information Systems Female     1
##  5 VP Human Resources     Female     1
##  6 Store Manager          Female    13
##  7 VP Finance             Male       1
##  8 Store Manager          Male      11
##  9 HQ Marketing           Female     2
## 10 HQ Information Systems Female     4
## # … with 20 more rows
…
db %>% 
  mutate(
    position_title = tolower(position_title),
    salary = as.numeric(salary),
    gender = ifelse(gender == "F", "Female", "Male"),
    marital_status = ifelse(marital_status == "S", "Single", "Married")
  ) %>%
  group_by(supervisor_id) %>% 
  summarise(
    underlings_count = n()
  ) %>% 
  collect()
## # A tibble: 112 x 2
##    supervisor_id underlings_count
##            <dbl>            <dbl>
##  1             0                1
##  2             1                7
##  3             5                9
##  4             4                2
##  5             2                3
##  6            20                2
##  7            21                4
##  8            22                7
##  9             6                4
## 10            36                2
## # … with 102 more rows
```
…
